<?xml version="1.0" encoding="UTF-8"?>
<!DOCTYPE suite SYSTEM "http://testng.org/testng-1.0.dtd">
<suite verbose="0" name="Failed suite [org.suyog.appium.yatraApp.tests.YatraAppTest]">
  <test name="Command line test(failed)">
    <classes>
      <class name="org.suyog.appium.yatraApp.tests.YatraAppTest">
        <methods>
          <include name="setUp"/>
          <include name="SearchFlightFlow_VerifyFromToOnHeader"/>
        </methods>
      </class> <!-- org.suyog.appium.yatraApp.tests.YatraAppTest -->
    </classes>
  </test> <!-- Command line test(failed) -->
</suite> <!-- Failed suite [org.suyog.appium.yatraApp.tests.YatraAppTest] -->
